Diamond Price Estimation
…
We can say from the graph that the depth values are almost equal. However, there are some lines where the “depth” and “new_ depth” values are far apart. We can say that their difference should be less than 11.

diamonds %>%
  filter(!(abs(new_depth - depth) < 11)) %>%
  select(new_depth, depth, x, y, z)

## # A tibble: 27 x 5
##    new_depth depth     x     y     z
##        <dbl> <dbl> <dbl> <dbl> <dbl>
##  1       0    59.1  6.55  6.48  0   
##  2       0    58.1  6.66  6.6   0   
##  3      51.2  62.8  6.26  6.19  3.19
##  4      63.1  43    6.32  6.27  3.97
##  5       0    63    6.5   6.47  0   
##  6       0    59.2  6.5   6.47  0   
##  7      65.7  44    6.31  6.24  4.12
##  8       0    64    7.15  7.04  0   
##  9      63.0  43    6.53  6.55  4.12
## 10       0    59.2  6.88  6.83  0   
## # ... with 17 more rows
…
